<?xml version="1.0" encoding="UTF-8" standalone="no"?>
<svg width="46px" height="46px" viewBox="0 0 46 46" version="1.1" xmlns="http://www.w3.org/2000/svg" xmlns:xlink="http://www.w3.org/1999/xlink">
    <!-- Generator: Sketch 42 (36781) - http://www.bohemiancoding.com/sketch -->
    <title>Group 35</title>
    <desc>Created with Sketch.</desc>
    <defs></defs>
    <g id="Page-1" stroke="none" stroke-width="1" fill="none" fill-rule="evenodd">
        <g id="Artboard-17" transform="translate(-403.000000, -81.000000)" fill="#1DE9B6">
            <g id="Group-4" transform="translate(403.000000, 81.000000)">
                <g id="Group-35">
                    <ellipse id="Oval-2" opacity="0.2" cx="23" cy="23" rx="23" ry="23"></ellipse>
                    <path d="M14,30 L20,30 L20,23 L14,23 L14,30 Z M21,30 L33,30 L33,23 L21,23 L21,30 Z M14,16 L14,22 L33,22 L33,16 L14,16 Z" id="Shape" fill-rule="nonzero"></path>
                </g>
            </g>
        </g>
    </g>
</svg>