[{
    "year": "2005",
    "papers": {
        "english": "sl-pho-test-2005.pdf",
        "sinhala": null,
        "tamil": null
    },
    "answers": null
},
 {
     "year": "2006",
     "papers": {
         "english": "sl-pho-test-2006.pdf",
         "sinhala": null,
         "tamil": null
     },
     "answers": null
 },
 {
     "year": "2007",
     "papers": {
         "english": "sl-pho-test-2007.pdf",
         "sinhala": null,
         "tamil": null
     },
     "answers": "2007.pdf"
 }, {
     "year": "2008",
     "papers": {
         "english": "sl-pho-test-2008.pdf",
         "sinhala": null,
         "tamil": null
     },
     "answers": "2008.pdf"
 }, {
     "year": "2009",
     "papers": {
         "english": "sl-pho-test-2009.pdf",
         "sinhala": null,
         "tamil": null
     },
     "answers": null
 }, {
     "year": "2010",
     "papers": {
         "english": "sl-pho-test-2010.pdf",
         "sinhala": null,
         "tamil": null
     },
     "answers": "2010.pdf"
 }, {
     "year": "2011",
     "papers": {
         "english": "sl-pho-test-2011.pdf",
         "sinhala": null,
         "tamil": null
     },
     "answers": "2011.pdf"
 }, {
     "year": "2012",
     "papers": {
         "english": null,
         "sinhala": null,
         "tamil": null
     },
     "answers": null
 }, {
     "year": "2013",
     "papers": {
         "english": "Olympiad2013.pdf",
         "sinhala": "Olympiad2013S.pdf",
         "tamil": null
     },
     "answers": null
 }, {
     "year": "2014",
     "papers": {
         "english": "Olympiad2014_English.pdf",
         "sinhala": "Olympiad2014_Sinhala.pdf",
         "tamil": "Olympiad2014_Tamil.pdf"
     },
     "answers": "2014.pdf"
 }, {
     "year": "2015",
     "papers": {
         "english": "OLY2015-English.docx",
         "sinhala": "OLY2015-Sinhala.docx",
         "tamil": "OLY2015-Tamil.docx"
     },
     "answers": "2015.docx"
 }, {
     "year": "2016",
     "papers": {
         "english": "2016_olympiad_paper_english.pdf",
         "sinhala": "2016_olympiad_paper_sinhala.pdf",
         "tamil": "2016_olympiad_paper_tamil.pdf"
     },
     "answers": "2016.pdf"
 }, {
     "year": "2017",
     "papers": {
         "english": "2017_olympiad_paper_english.pdf",
         "sinhala": "2017_olympiad_paper_sinhala.pdf",
         "tamil": "2017_olympiad_paper_tamil.pdf"
     },
     "answers": null
 }
]